{
	"name": "Default Portrait Layout",
	"description": "Default perspective in portrait mode.",
	"orientation": "portrait",
	"json-layout-version": "JSONTableLayout:1.0",
	"layout": {
		"rows":
		[
		]
	}
}