{
	"name": "X Scientific",
	"description": "Scientific perspective in landscape mode emulating the Mac OS Calculator",
	"orientation": "landscape",
	"suggestedDecimals": 5,
	"json-layout-version": "JSONTableLayout:1.0",
	"supportedNumericBases": [
		10
	],
	"layout": {
		"rows": [
			[
				{
					"ui-function": "display-y",
					"row-span": 2,
					"column-span": 9
				},
				{
					"operation-id": "x<->y"
				}
			],
			[
				{
					"column-coordinate": 9,
					"operation-id": "rotdown"
				}
			],
			[
				{
					"ui-function": "display-x",
					"row-span": 2,
					"column-span": 9
				},
				{
					"operation-id": "rotup"
				}
			],
			[
				{
					"column-coordinate": 9,
					"operation-id": "dropx"
				}
			],
			[
				{
					"ui-function": "settings"
				},
				{
					"operation-id": "check"
				},
				{
					"operation-id": "cm"
				},
				{
					"operation-id": "m+"
				},
				{
					"operation-id": "m-"
				},
				{
					"operation-id": "rm"
				},
				{
					"operation-id": "rst"
				},
				{
					"operation-id": "chsx"
				},
				{
					"operation-id": "percent"
				},
				{
					"operation-id": "/"
				}
			],
			[
				{
					"ui-function": "function-a"
				},
				{
					"operation-id": "x^2"
				},
				{
					"operation-id": "x^3"
				},
				{
					"operation-id": "x^y"
				},
				{
					"operation-id": "e^x"
				},
				{
					"operation-id": "10^x"
				},
				{
					"operation-id": "7"
				},
				{
					"operation-id": "8"
				},
				{
					"operation-id": "9"
				},
				{
					"operation-id": "*"
				}
			],
			[
				{
					"operation-id": "1/x"
				},
				{
					"operation-id": "sqrtx"
				},
				{
					"operation-id": "cbrtx"
				},
				{
					"operation-id": "yrtx"
				},
				{
					"operation-id": "lnx"
				},
				{
					"operation-id": "log10x"
				},
				{
					"operation-id": "4"
				},
				{
					"operation-id": "5"
				},
				{
					"operation-id": "6"
				},
				{
					"operation-id": "-"
				}
			],
			[
				{
					"operation-id": "x!"
				},
				{
					"operation-id": "sinx"
				},
				{
					"operation-id": "cosx"
				},
				{
					"operation-id": "tanx"
				},
				{
					"operation-id": "e_constant"
				},
				{
					"operation-id": "gr_constant"
				},
				{
					"operation-id": "1"
				},
				{
					"operation-id": "2"
				},
				{
					"operation-id": "3"
				},
				{
					"operation-id": "+"
				}
			],
			[
				{
					"operation-id": "degrad"
				},
				{
					"operation-id": "sinhx"
				},
				{
					"operation-id": "coshx"
				},
				{
					"operation-id": "tanhx"
				},
				{
					"operation-id": "pi_constant"
				},
				{
					"operation-id": "rand"
				},
				{
					"operation-id": "0",
					"column-span": 2
				},
				{
					"operation-id": "."
				},
				{
					"operation-id": "ent"
				}
			]
		],
		"layers": {
			"function-a": [
				[
					{
						"row-coordinate": 4,
						"column-coordinate": 1,
						"operation-id": "restore"
					},
					{
						"column-coordinate": 8,
						"operation-id": "delta-percent"
					}
				],
				[
					{
						"row-coordinate": 5,
						"column-coordinate": 0,
						"ui-function": "normal"
					},
					{
						"operation-id": "to-percent"
					},
					{
						"operation-id": "reverse-percentage"
					},
					{
						"operation-id": "x^y"
					},
					{
						"operation-id": "y^x"
					},
					{
						"operation-id": "2^x"
					}
				],
				[
					{
						"operation-id": "1/x"
					},
					{
						"operation-id": "sqrtx"
					},
					{
						"operation-id": "cbrtx"
					},
					{
						"operation-id": "yrtx"
					},
					{
						"operation-id": "lnx"
					},
					{
						"operation-id": "log2x"
					}
				],
				[
					{
						"operation-id": "fact_quad"
					},
					{
						"operation-id": "asinx"
					},
					{
						"operation-id": "acosx"
					},
					{
						"operation-id": "atanx"
					},
					{
						"operation-id": "euler_constant"
					},
					{
						"operation-id": "decimal"
					}
				],
				[
					{
						"operation-id": "degrad"
					},
					{
						"operation-id": "asinhx"
					},
					{
						"operation-id": "acoshx"
					},
					{
						"operation-id": "atanhx"
					},
					{
						"operation-id": "two_pi_constant"
					}
				]
			]
		}
	}
}