{
	"name": "Default Portrait Perspective",
	"description": "Default perspective in portrait mode.",
	"orientation": "landscape",
	"json-layout-version": "JSONTableLayout:1.0",
	"layout": {
			"rows": [
				[
					{
						"operation-id": "clx"
					}
				]
			]
	}
}