{
	"name": "Blue OS",
	"description": "Profile which emulates the colors of an OS calculator",
	"details": {
		"colors": {
			"settingsButton": {
				"red": 252,
				"green": 87,
				"blue": 64,
				"alpha": 1
			},
			"settingsButtonPressed": {
				"red": 232,
				"green": 67,
				"blue": 44,
				"alpha": 1
			},
			"gray": {
				"red": 142,
				"green": 142,
				"blue": 142,
				"alpha": 1
			},
			"lighterGray": {
				"red": 104,
				"green": 104,
				"blue": 104,
				"alpha": 1
			},
			"lighterGray2": {
				"red": 169,
				"green": 169,
				"blue": 169,
				"alpha": 1
			},
			"lighterGray3": {
				"red": 175,
				"green": 175,
				"blue": 175,
				"alpha": 1
			},
			"lighterGray4": {
				"red": 178,
				"green": 178,
				"blue": 178,
				"alpha": 1
			},
			"lighterGray5": {
				"red": 214,
				"green": 214,
				"blue": 214,
				"alpha": 1
			},
			"darkerGray": {
				"red": 210,
				"green": 210,
				"blue": 210,
				"alpha": 1
			},
			"lighterLightGray": {
				"red": 224,
				"green": 224,
				"blue": 224,
				"alpha": 1
			},
			"normalButton": {
				"red": 207,
				"green": 199,
				"blue": 191,
				"alpha": 1
			},
			"normalButtonPressed": {
				"red": 197,
				"green": 189,
				"blue": 181,
				"alpha": 1
			},
			"functionButton": {
				"red": 187,
				"green": 179,
				"blue": 171,
				"alpha": 1
			},
			"functionButtonPressed": {
				"red": 177,
				"green": 169,
				"blue": 161,
				"alpha": 1
			},
			"colorfulButton": {
				"red": 85,
				"green": 153,
				"blue": 255,
				"alpha": 1
			},
			"colorfulButtonPressed": {
				"red": 1,
				"green": 87,
				"blue": 164,
				"alpha": 1
			}
		},
		"fonts": {
			"italic": {
				"style": "italic"
			},
			"bold": {
				"style": "bold"
			},
			"light": {
				"style": "light"
			},
			"normal": {
				"style": "normal"
			},
			"ultraLight": {
				"style": "ultraLight"
			}
		}
	},
	"defaults": {
		"settings.buttonColor": "settingsButton",
		"settings.buttonPressedColor": "settingsButtonPressed",
		"settings.activeMnemonicColor": "#white",
		"settings.activeMnemonicColorPressed": "#white",
		"settings.activeMnemonicFont": "italic"
	},
	"profile": {
		"normal": {
			"normal": {
				"buttonColor": "normalButton",
				"buttonPressedColor": "normalButtonPressed",
				"lineColor": "gray",
				"activeMnemonicColor": "#black",
				"activeMnemonicColorPressed": "#black",
				"inactiveMnemonicColor": "#white",
				"inactiveMnemonicColorPressed": "#white"
			},
			"display-x": {
				"buttonColor": "#black",
				"lineColor": "gray",
				"activeMnemonicColor": "#white",
				"activeMnemonicFont": "ultraLight"
			},
			"display-y": {
				"buttonColor": "#black",
				"lineColor": "gray",
				"activeMnemonicColor": "darkerGray",
				"activeMnemonicFont": "light"
			},
			"display-z": {
				"buttonColor": "#black",
				"lineColor": "gray",
				"activeMnemonicColor": "darkerGray",
				"activeMnemonicFont": "light"
			},
			"display-t": {
				"buttonColor": "#black",
				"lineColor": "gray",
				"activeMnemonicColor": "darkerGray",
				"activeMnemonicFont": "light"
			},
			"arithmetic_operator": {
				"buttonColor": "colorfulButton",
				"buttonPressedColor": "colorfulButtonPressed",
				"lineColor": "gray",
				"activeMnemonicColor": "#white",
				"activeMnemonicColorPressed": "lighterGray",
				"inactiveMnemonicColor": "#white",
				"inactiveMnemonicColorPressed": "#white"
			},
			"unary": {
				"buttonColor": "lighterGray5",
				"buttonPressedColor": "lighterGray2",
				"lineColor": "gray",
				"activeMnemonicColor": "#black",
				"activeMnemonicColorPressed": "#black",
				"inactiveMnemonicColor": "#white",
				"inactiveMnemonicColorPressed": "#white"
			},
			"binary": {
				"buttonColor": "lighterGray5",
				"buttonPressedColor": "lighterGray2",
				"lineColor": "gray",
				"activeMnemonicColor": "#black",
				"activeMnemonicColorPressed": "#black",
				"inactiveMnemonicColor": "#white",
				"inactiveMnemonicColorPressed": "#white"
			},
			"enary": {
				"buttonColor": "lighterGray5",
				"buttonPressedColor": "lighterGray2",
				"lineColor": "gray",
				"activeMnemonicColor": "#black",
				"activeMnemonicColorPressed": "#black",
				"inactiveMnemonicColor": "#white",
				"inactiveMnemonicColorPressed": "#white"
			},
			"state": {
				"buttonColor": "lighterGray3",
				"buttonPressedColor": "lighterGray2",
				"lineColor": "gray",
				"activeMnemonicColor": "#white",
				"activeMnemonicColorPressed": "#black",
				"inactiveMnemonicColor": "#white",
				"inactiveMnemonicColorPressed": "#white"
			},
			"literal": {
				"buttonColor": "lighterLightGray",
				"buttonPressedColor": "lighterGray4",
				"lineColor": "gray",
				"activeMnemonicColor": "#black",
				"activeMnemonicColorPressed": "#black",
				"inactiveMnemonicColor": "#white",
				"inactiveMnemonicColorPressed": "#white"
			},
			"operand_b": {
				"buttonColor": "lighterLightGray",
				"buttonPressedColor": "lighterGray4",
				"lineColor": "gray",
				"activeMnemonicColor": "#black",
				"activeMnemonicColorPressed": "#black",
				"inactiveMnemonicColor": "#black",
				"inactiveMnemonicColorPressed": "#black"
			},
			"operand_c": {
				"buttonColor": "lighterLightGray",
				"buttonPressedColor": "lighterGray4",
				"lineColor": "gray",
				"activeMnemonicColor": "#white",
				"activeMnemonicColorPressed": "#black",
				"inactiveMnemonicColor": "#white",
				"inactiveMnemonicColorPressed": "#white"
			},
			"operand_d": {
				"buttonColor": "lighterLightGray",
				"buttonPressedColor": "lighterGray4",
				"lineColor": "gray",
				"activeMnemonicColor": "#black",
				"activeMnemonicColorPressed": "#black",
				"inactiveMnemonicColor": "#white",
				"inactiveMnemonicColorPressed": "#white"
			},
			"function-a": {
				"buttonColor": "normalButton",
				"buttonPressedColor": "normalButtonPressed",
				"lineColor": "gray",
				"activeMnemonicColor": "#black",
				"activeMnemonicColorPressed": "#black",
				"inactiveMnemonicColor": "#white",
				"inactiveMnemonicColorPressed": "#white"
			},
			"function-b": {
				"buttonColor": "functionButton",
				"buttonPressedColor": "functionButtonPressed",
				"lineColor": "gray",
				"activeMnemonicColor": "#black",
				"activeMnemonicColorPressed": "#black",
				"inactiveMnemonicColor": "#white",
				"inactiveMnemonicColorPressed": "#white"
			},
			"function-c": {
				"buttonColor": "functionButton",
				"buttonPressedColor": "functionButtonPressed",
				"lineColor": "gray",
				"activeMnemonicColor": "#black",
				"activeMnemonicColorPressed": "#black",
				"inactiveMnemonicColor": "#white",
				"inactiveMnemonicColorPressed": "#white"
			},
			"function-d": {
				"buttonColor": "functionButton",
				"buttonPressedColor": "functionButtonPressed",
				"lineColor": "gray",
				"activeMnemonicColor": "#black",
				"activeMnemonicColorPressed": "#black",
				"inactiveMnemonicColor": "#white",
				"inactiveMnemonicColorPressed": "#white"
			}
		},
		"function-a": {
			"normal": {
				"buttonColor": "normalButton",
				"buttonPressedColor": "normalButtonPressed",
				"lineColor": "gray",
				"activeMnemonicColor": "#black",
				"activeMnemonicColorPressed": "#black",
				"inactiveMnemonicColor": "#white",
				"inactiveMnemonicColorPressed": "#white"
			}
		},
		"function-b": {
			"normal": {
				"buttonColor": "functionButton",
				"buttonPressedColor": "functionButtonPressed",
				"lineColor": "gray",
				"activeMnemonicColor": "#black",
				"activeMnemonicColorPressed": "#black",
				"inactiveMnemonicColor": "#white",
				"inactiveMnemonicColorPressed": "#white"
			}
		}
	}
}
