{
	"mnemonic": "d.ms",
	"description": "Converts Hours.MinutesSeconds into Decimal",
	"json-layout-version": "JSONTableLayout:1.0",
	"operations": [
								 "ent",
								 "#2.75",
								 "2#.75",
								 "#",
								 "store"
								 ]
}